<?xml version="1.0" encoding="UTF-8" standalone="no"?>
<svg
   xmlns:dc="http://purl.org/dc/elements/1.1/"
   xmlns:cc="http://creativecommons.org/ns#"
   xmlns:rdf="http://www.w3.org/1999/02/22-rdf-syntax-ns#"
   xmlns:svg="http://www.w3.org/2000/svg"
   xmlns="http://www.w3.org/2000/svg"
   xmlns:sodipodi="http://sodipodi.sourceforge.net/DTD/sodipodi-0.dtd"
   xmlns:inkscape="http://www.inkscape.org/namespaces/inkscape"
   width="39.090164mm"
   height="40.26458mm"
   viewBox="0 0 147.74235 152.18109"
   id="svg2"
   version="1.1"
   inkscape:version="1.0 (4035a4fb49, 2020-05-01)"
   sodipodi:docname="logoGueuloNoir-decoupe.svg"
   inkscape:export-filename="M:\Imprimante 3D\Objets 3D\SVG files\Découpe Laser\Logo-Gueulo-4cm-Decoup.png"
   inkscape:export-xdpi="96"
   inkscape:export-ydpi="96">
  <defs
     id="defs4" />
  <sodipodi:namedview
     inkscape:snap-global="false"
     id="base"
     pagecolor="#ffffff"
     bordercolor="#666666"
     borderopacity="1.0"
     inkscape:pageopacity="0.0"
     inkscape:pageshadow="2"
     inkscape:zoom="1.3077162"
     inkscape:cx="298.82304"
     inkscape:cy="278.06011"
     inkscape:document-units="mm"
     inkscape:current-layer="layer2"
     showgrid="false"
     fit-margin-left="0"
     fit-margin-top="0"
     fit-margin-bottom="0"
     fit-margin-right="0"
     inkscape:window-width="1680"
     inkscape:window-height="988"
     inkscape:window-x="1912"
     inkscape:window-y="-8"
     inkscape:window-maximized="1"
     inkscape:document-rotation="0"
     scale-x="1"
     lock-margins="true" />
  <metadata
     id="metadata7">
    <rdf:RDF>
      <cc:Work
         rdf:about="">
        <dc:format>image/svg+xml</dc:format>
        <dc:type
           rdf:resource="http://purl.org/dc/dcmitype/StillImage" />
        <dc:title></dc:title>
      </cc:Work>
    </rdf:RDF>
  </metadata>
  <g
     style="display:inline"
     transform="translate(0.61254199,-10.993441)"
     inkscape:label="découpe"
     id="layer2"
     inkscape:groupmode="layer">
    <path
       d="m 214.85254,300.18225 a 73.371182,75.590553 0 0 1 -73.37118,75.59055 73.371182,75.590553 0 0 1 -73.37118,-75.59055 73.371182,75.590553 0 0 1 73.37118,-75.59055 73.371182,75.590553 0 0 1 73.37118,75.59055 z"
       style="display:inline;opacity:1;fill:none;stroke:#ff0000;stroke-width:0.37795275;stop-color:#000000;stroke-miterlimit:4;stroke-dasharray:none"
       id="path1474"
       transform="translate(-68.222723,-213.09826)" />
    <path
       d="m 145.16092,236.40166 a 5.5484276,5.5484276 0 0 1 -5.54843,5.54842 5.5484276,5.5484276 0 0 1 -5.54843,-5.54842 5.5484276,5.5484276 0 0 1 5.54843,-5.54843 5.5484276,5.5484276 0 0 1 5.54843,5.54843 z"
       style="display:inline;opacity:1;fill:none;stroke:#ff0000;stop-color:#000000;stroke-width:0.37795275;stroke-miterlimit:4;stroke-dasharray:none"
       id="path1477"
       transform="translate(-68.222723,-213.09826)" />
  </g>
</svg>
